# compile verilog/system verilog design source files
verilog xil_defaultlib  "../../../Lab2_Mireles.srcs/sources_1/imports/Lab2_Mireles/audio_init.v" --include "../../../Lab2_Mireles.srcs/sources_1/ip/clk_wiz_0" --include "../../../Lab2_Mireles.srcs/sources_1/ip/clk_wiz_1"

# compile glbl module
verilog xil_defaultlib "glbl.v"

# Do not sort compile order
nosort
